…
``` r
p2_tidy_data = 
  p2_data %>%
  mutate(file_name = gsub(".csv", "", file_name)) %>%
  separate(file_name, into = c("trt_group", "id"), sep = "_") %>%
  pivot_longer(week_1:week_8, 
               names_to = "week",
               values_to = "value") %>%
  mutate(week = gsub("week_", "", week))

p2_tidy_data
```

    ## # A tibble: 160 x 4
    ##    trt_group id    week  value
    ##    <chr>     <chr> <chr> <dbl>
    ##  1 con       01    1      0.2 
    ##  2 con       01    2     -1.31
    ##  3 con       01    3      0.66
    ##  4 con       01    4      1.96
    ##  5 con       01    5      0.23
    ##  6 con       01    6      1.09
    ##  7 con       01    7      0.05
    ##  8 con       01    8      1.94
    ##  9 con       02    1      1.13
    ## 10 con       02    2     -0.88
    ## # … with 150 more rows
…
##### Set mu=0 and perform the result

``` r
result_0 = 
  repeat_5000_ttest(k=0) %>%
  mutate (mu = 0) %>%
  select(mu, estimate:alternative) %>%
  mutate(decision = case_when(p.value < 0.05 ~ "rej", p.value >=0.05 ~ "fail to rej"))

result_0
```

    ## # A tibble: 5,000 x 10
    ##       mu estimate statistic p.value parameter conf.low conf.high method
    ##    <dbl>    <dbl>     <dbl>   <dbl>     <dbl>    <dbl>     <dbl> <chr> 
    ##  1     0   -0.402    -0.466   0.645        29   -2.16      1.36  One S…
    ##  2     0    1.06      1.17    0.253        29   -0.799     2.92  One S…
    ##  3     0    0.463     0.457   0.651        29   -1.61      2.54  One S…
    ##  4     0    1.02      1.34    0.191        29   -0.537     2.57  One S…
    ##  5     0   -0.522    -0.614   0.544        29   -2.26      1.22  One S…
    ##  6     0   -1.11     -1.24    0.227        29   -2.95      0.729 One S…
    ##  7     0    0.784     0.715   0.480        29   -1.46      3.03  One S…
    ##  8     0    0.136     0.191   0.850        29   -1.32      1.59  One S…
    ##  9     0   -0.433    -0.553   0.584        29   -2.03      1.17  One S…
    ## 10     0    0.346     0.296   0.770        29   -2.05      2.74  One S…
    ## # … with 4,990 more rows, and 2 more variables: alternative <chr>,
    ## #   decision <chr>
…
result_summ = 
  result_0to6 %>% 
  unnest(c(mu, results)) %>%
  mutate(decision = case_when(p.value < 0.05 ~ "rej", p.value >=0.05 ~ "fail to rej"))

result_summ
```

    ## # A tibble: 35,000 x 10
    ##       mu estimate statistic p.value parameter conf.low conf.high method
    ##    <dbl>    <dbl>     <dbl>   <dbl>     <dbl>    <dbl>     <dbl> <chr> 
    ##  1     0  -1.26     -1.32     0.196        29   -3.21      0.689 One S…
    ##  2     0   1.25      1.37     0.180        29   -0.609     3.10  One S…
    ##  3     0  -0.740    -0.926    0.362        29   -2.37      0.894 One S…
    ##  4     0  -0.564    -0.636    0.530        29   -2.38      1.25  One S…
    ##  5     0  -0.311    -0.361    0.720        29   -2.07      1.45  One S…
    ##  6     0   0.216     0.179    0.859        29   -2.26      2.69  One S…
    ##  7     0   0.771     1.05     0.303        29   -0.733     2.27  One S…
    ##  8     0  -1.19     -1.22     0.233        29   -3.19      0.808 One S…
    ##  9     0  -0.0386   -0.0393   0.969        29   -2.04      1.97  One S…
    ## 10     0   0.829     0.695    0.493        29   -1.61      3.27  One S…
    ## # … with 34,990 more rows, and 2 more variables: alternative <chr>,
    ## #   decision <chr>
…
